date dh cdbs dh7 other
2005-04-01 82 9 0 7
2005-07-01 82 10 0 6
2005-10-01 81 12 0 6
2006-01-01 80 13 0 6
2006-03-01 80 14 0 5
2006-05-01 80 14 0 5
2006-07-01 79 15 0 5
2006-09-01 78 16 0 4
2006-11-01 78 17 0 4
2007-01-01 77 17 0 4
2007-03-01 77 18 0 4
2007-05-01 76 18 0 4
2007-07-01 75 19 0 4
2007-09-01 75 20 0 4
2007-11-01 74 21 0 3
2008-01-01 73 22 0 3
2008-03-01 73 22 0 3
2008-05-01 72 23 0 3
2008-07-01 72 23 0 3
2008-09-01 70 24 1 2
2008-11-01 70 24 2 2
2009-01-01 68 24 3 2
2009-03-01 67 24 4 2
2009-05-01 65 24 6 2
2009-07-01 63 24 9 2
2009-09-01 59 25 12 2
2009-11-01 57 25 14 2
2010-01-01 55 25 17 2
2010-03-01 52 25 20 2
2010-05-01 50 25 22 2
2010-07-01 48 24 24 2
2010-09-01 47 24 26 1
2010-11-01 46 24 26 1
2011-01-01 45 24 27 1
2011-03-01 43 24 30 1
2011-05-01 41 23 34 1
2011-07-01 39 23 36 1
2011-09-01 37 22 38 1
2011-11-01 36 21 40 1
2012-01-01 34 21 42 1
2012-03-01 33 20 44 1
2012-05-01 31 20 47 1
2012-07-01 29 19 49 1
2012-09-01 29 19 50 1
2012-11-01 29 19 50 1
2013-01-01 28 19 51 1
2013-03-01 28 18 52 1
2013-05-01 27 18 53 1
2013-07-01 25 18 54 0
2013-09-01 24 18 56 0
2013-11-01 23 17 57 0
2014-01-01 22 17 59 0
2014-03-01 21 17 60 0
2014-05-01 20 17 61 0
2014-07-01 20 17 61 0
2014-09-01 19 16 62 0
2014-11-01 18 16 64 0
2015-01-01 18 16 64 0
2015-03-01 18 16 64 0
2015-05-01 17 16 64 0
2015-07-01 17 16 65 0
2015-09-01 16 15 66 0
2015-11-01 16 15 67 0
2015-12-24 15 15 68 0
